clkgen/dump.vcd
$date
	Mon Mar  4 18:32:43 2024
$end

$version
	Synopsys VCS version R-2020.12
$end

$timescale
	1ns
$end

$comment Csum: 1 eb54c8559bb71c3c $end


$scope module tb $end

$scope begin unnamed$$_vcs_3 $end
$upscope $end


$scope begin unnamed$$_vcs_0 $end
$upscope $end


$scope begin unnamed$$_vcs_1 $end
$upscope $end


$scope begin unnamed$$_vcs_2 $end
$upscope $end


$scope module vif $end
$var reg 1 ! clk $end
$var reg 1 " rst $end
$var reg 17 # baud [16:0] $end
$var reg 1 $ tx_clk $end
$upscope $end


$scope module DUT $end
$var wire 1 % clk $end
$var wire 1 & rst $end
$var wire 17 ' baud [16:0] $end
$var wire 1 ( tx_clk $end
$var reg 1 ) tclk $end
$var reg 32 * txmax [31:0] $end
$var reg 32 + txcount [31:0] $end
$upscope $end

$upscope $end

$enddefinitions $end

#0
$dumpvars
bxxxxxxxxxxxxxxxxx #
x)
b00000000000000000000000000000000 +
b00000000000000000000000000000000 *
bxxxxxxxxxxxxxxxxx '
0!
1"
x$
0%
1&
x(
$end
#20
1!
1%
0)
0(
0$
#40
0!
0%
#60
1!
1%
#70
0"
0&
b00100101100000000 #
b00100101100000000 '
#80
0!
0%
#100
1!
1%
b00000000000000000000101000101100 *
1)
1(
1$
#120
0!
0%
#140
1!
1%
b00000000000000000000000000000001 +
#160
0!
0%
#180
1!
1%
b00000000000000000000000000000010 +
#200
0!
0%
#220
1!
1%
b00000000000000000000000000000011 +
#240
0!
0%
#260
1!
1%
b00000000000000000000000000000100 +
#280
0!
0%
#300
1!
1%
b00000000000000000000000000000101 +
#320
0!
0%
#340
1!
1%
b00000000000000000000000000000110 +
#360
0!
0%
#380
1!
1%
b00000000000000000000000000000111 +
#400
0!
0%
#420
1!
1%
b00000000000000000000000000001000 +
#440
0!
0%
#460
1!
1%
b00000000000000000000000000001001 +
#480
0!
0%
#500
1!
1%
b00000000000000000000000000001010 +
#520
0!
0%
#540
1!
1%
b00000000000000000000000000001011 +
#560
0!
0%
#580
1!
1%
b00000000000000000000000000001100 +
#600
0!
0%
#620
1!
1%
b00000000000000000000000000001101 +
#640
0!
0%
#660
1!
1%
b00000000000000000000000000001110 +
#680
0!
0%
#700
1!
1%
b00000000000000000000000000001111 +
#720
0!
0%
#740
1!
1%
b00000000000000000000000000010000 +
#760
0!
0%
#780
1!
1%
b00000000000000000000000000010001 +
#800
0!
0%
#820
1!
1%
b00000000000000000000000000010010 +
#840
0!
0%
#860
1!
1%
b00000000000000000000000000010011 +
#880
0!
0%
#900
1!
1%
b00000000000000000000000000010100 +
#920
0!
0%
#940
1!
1%
b00000000000000000000000000010101 +
#960
0!
0%
#980
1!
1%
b00000000000000000000000000010110 +
#1000
0!
0%
#1020
1!
1%
b00000000000000000000000000010111 +
#1040
0!
0%
#1060
1!
1%
b00000000000000000000000000011000 +
#1080
0!
0%
#1100
1!
1%
b00000000000000000000000000011001 +
#1120
0!
0%
#1140
1!
1%
b00000000000000000000000000011010 +
#1160
0!
0%
#1180
1!
1%
b00000000000000000000000000011011 +
#1200
0!
0%
#1220
1!
1%
b00000000000000000000000000011100 +
#1240
0!
0%
#1260
1!
1%
b00000000000000000000000000011101 +
#1280
0!
0%
#1300
1!
1%
b00000000000000000000000000011110 +
#1320
0!
0%
#1340
1!
1%
b00000000000000000000000000011111 +
#1360
0!
0%
#1380
1!
1%
b00000000000000000000000000100000 +
#1400
0!
0%
#1420
1!
1%
b00000000000000000000000000100001 +
#1440
0!
0%
#1460
1!
1%
b00000000000000000000000000100010 +
#1480
0!
0%
#1500
1!
1%
b00000000000000000000000000100011 +
#1520
0!
0%
#1540
1!
1%
b00000000000000000000000000100100 +
#1560
0!
0%
#1580
1!
1%
b00000000000000000000000000100101 +
#1600
0!
0%
#1620
1!
1%
b00000000000000000000000000100110 +
#1640
0!
0%
#1660
1!
1%
b00000000000000000000000000100111 +
#1680
0!
0%
#1700
1!
1%
b00000000000000000000000000101000 +
#1720
0!
0%
#1740
1!
1%
b00000000000000000000000000101001 +
#1760
0!
0%
#1780
1!
1%
b00000000000000000000000000101010 +
#1800
0!
0%
#1820
1!
1%
b00000000000000000000000000101011 +
#1840
0!
0%
#1860
1!
1%
b00000000000000000000000000101100 +
#1880
0!
0%
#1900
1!
1%
b00000000000000000000000000101101 +
#1920
0!
0%
#1940
1!
1%
b00000000000000000000000000101110 +
#1960
0!
0%
#1980
1!
1%
b00000000000000000000000000101111 +
#2000
0!
0%
#2020
1!
1%
b00000000000000000000000000110000 +
#2040
0!
0%
#2060
1!
1%
b00000000000000000000000000110001 +
#2080
0!
0%
#2100
1!
1%
b00000000000000000000000000110010 +
#2120
0!
0%
#2140
1!
1%
b00000000000000000000000000110011 +
#2160
0!
0%
#2180
1!
1%
b00000000000000000000000000110100 +
#2200
0!
0%
#2220
1!
1%
b00000000000000000000000000110101 +
#2240
0!
0%
#2260
1!
1%
b00000000000000000000000000110110 +
#2280
0!
0%
#2300
1!
1%
b00000000000000000000000000110111 +
#2320
0!
0%
#2340
1!
1%
b00000000000000000000000000111000 +
#2360
0!
0%
#2380
1!
1%
b00000000000000000000000000111001 +
#2400
0!
0%
#2420
1!
1%
b00000000000000000000000000111010 +
#2440
0!
0%
#2460
1!
1%
b00000000000000000000000000111011 +
#2480
0!
0%
#2500
1!
1%
b00000000000000000000000000111100 +
#2520
0!
0%
#2540
1!
1%
b00000000000000000000000000111101 +
#2560
0!
0%
#2580
1!
1%
b00000000000000000000000000111110 +
#2600
0!
0%
#2620
1!
1%
b00000000000000000000000000111111 +
#2640
0!
0%
#2660
1!
1%
b00000000000000000000000001000000 +
#2680
0!
0%
#2700
1!
1%
b00000000000000000000000001000001 +
#2720
0!
0%
#2740
1!
1%
b00000000000000000000000001000010 +
#2760
0!
0%
#2780
1!
1%
b00000000000000000000000001000011 +
#2800
0!
0%
#2820
1!
1%
b00000000000000000000000001000100 +
#2840
0!
0%
#2860
1!
1%
b00000000000000000000000001000101 +
#2880
0!
0%
#2900
1!
1%
b00000000000000000000000001000110 +
#2920
0!
0%
#2940
1!
1%
b00000000000000000000000001000111 +
#2960
0!
0%
#2980
1!
1%
b00000000000000000000000001001000 +
#3000
0!
0%
#3020
1!
1%
b00000000000000000000000001001001 +
#3040
0!
0%
#3060
1!
1%
b00000000000000000000000001001010 +
#3080
0!
0%
#3100
1!
1%
b00000000000000000000000001001011 +
#3120
0!
0%
#3140
1!
1%
b00000000000000000000000001001100 +
#3160
0!
0%
#3180
1!
1%
b00000000000000000000000001001101 +
#3200
0!
0%
#3220
1!
1%
b00000000000000000000000001001110 +
#3240
0!
0%
#3260
1!
1%
b00000000000000000000000001001111 +
#3280
0!
0%
#3300
1!
1%
b00000000000000000000000001010000 +
#3320
0!
0%
#3340
1!
1%
b00000000000000000000000001010001 +
#3360
0!
0%
#3380
1!
1%
b00000000000000000000000001010010 +
#3400
0!
0%
#3420
1!
1%
b00000000000000000000000001010011 +
#3440
0!
0%
#3460
1!
1%
b00000000000000000000000001010100 +
#3480
0!
0%
#3500
1!
1%
b00000000000000000000000001010101 +
#3520
0!
0%
#3540
1!
1%
b00000000000000000000000001010110 +
#3560
0!
0%
#3580
1!
1%
b00000000000000000000000001010111 +
#3600
0!
0%
#3620
1!
1%
b00000000000000000000000001011000 +
#3640
0!
0%
#3660
1!
1%
b00000000000000000000000001011001 +
#3680
0!
0%
#3700
1!
1%
b00000000000000000000000001011010 +
#3720
0!
0%
#3740
1!
1%
b00000000000000000000000001011011 +
#3760
0!
0%
#3780
1!
1%
b00000000000000000000000001011100 +
#3800
0!
0%
#3820
1!
1%
b00000000000000000000000001011101 +
#3840
0!
0%
#3860
1!
1%
b00000000000000000000000001011110 +
#3880
0!
0%
#3900
1!
1%
b00000000000000000000000001011111 +
#3920
0!
0%
#3940
1!
1%
b00000000000000000000000001100000 +
#3960
0!
0%
#3980
1!
1%
b00000000000000000000000001100001 +
#4000
0!
0%
#4020
1!
1%
b00000000000000000000000001100010 +
#4040
0!
0%
#4060
1!
1%
b00000000000000000000000001100011 +
#4080
0!
0%
#4100
1!
1%
b00000000000000000000000001100100 +
#4120
0!
0%
#4140
1!
1%
b00000000000000000000000001100101 +
#4160
0!
0%
#4180
1!
1%
b00000000000000000000000001100110 +
#4200
0!
0%
#4220
1!
1%
b00000000000000000000000001100111 +
#4240
0!
0%
#4260
1!
1%
b00000000000000000000000001101000 +
#4280
0!
0%
#4300
1!
1%
b00000000000000000000000001101001 +
#4320
0!
0%
#4340
1!
1%
b00000000000000000000000001101010 +
#4360
0!
0%
#4380
1!
1%
b00000000000000000000000001101011 +
#4400
0!
0%
#4420
1!
1%
b00000000000000000000000001101100 +
#4440
0!
0%
#4460
1!
1%
b00000000000000000000000001101101 +
#4480
0!
0%
#4500
1!
1%
b00000000000000000000000001101110 +
#4520
0!
0%
#4540
1!
1%
b00000000000000000000000001101111 +
#4560
0!
0%
#4580
1!
1%
b00000000000000000000000001110000 +
#4600
0!
0%
#4620
1!
1%
b00000000000000000000000001110001 +
#4640
0!
0%
#4660
1!
1%
b00000000000000000000000001110010 +
#4680
0!
0%
#4700
1!
1%
b00000000000000000000000001110011 +
#4720
0!
0%
#4740
1!
1%
b00000000000000000000000001110100 +
#4760
0!
0%
#4780
1!
1%
b00000000000000000000000001110101 +
#4800
0!
0%
#4820
1!
1%
b00000000000000000000000001110110 +
#4840
0!
0%
#4860
1!
1%
b00000000000000000000000001110111 +
#4880
0!
0%
#4900
1!
1%
b00000000000000000000000001111000 +
#4920
0!
0%
#4940
1!
1%
b00000000000000000000000001111001 +
#4960
0!
0%
#4980
1!
1%
b00000000000000000000000001111010 +
#5000
0!
0%
#5020
1!
1%
b00000000000000000000000001111011 +
#5040
0!
0%
#5060
1!
1%
b00000000000000000000000001111100 +
#5080
0!
0%
#5100
1!
1%
b00000000000000000000000001111101 +
#5120
0!
0%
#5140
1!
1%
b00000000000000000000000001111110 +
#5160
0!
0%
#5180
1!
1%
b00000000000000000000000001111111 +
#5200
0!
0%
#5220
1!
1%
b00000000000000000000000010000000 +
#5240
0!
0%
#5260
1!
1%
b00000000000000000000000010000001 +
#5280
0!
0%
#5300
1!
1%
b00000000000000000000000010000010 +
#5320
0!
0%
#5340
1!
1%
b00000000000000000000000010000011 +
#5360
0!
0%
#5380
1!
1%
b00000000000000000000000010000100 +
#5400
0!
0%
#5420
1!
1%
b00000000000000000000000010000101 +
#5440
0!
0%
#5460
1!
1%
b00000000000000000000000010000110 +
#5480
0!
0%
#5500
1!
1%
b00000000000000000000000010000111 +
#5520
0!
0%
#5540
1!
1%
b00000000000000000000000010001000 +
#5560
0!
0%
#5580
1!
1%
b00000000000000000000000010001001 +
#5600
0!
0%
#5620
1!
1%
b00000000000000000000000010001010 +
#5640
0!
0%
#5660
1!
1%
b00000000000000000000000010001011 +
#5680
0!
0%
#5700
1!
1%
b00000000000000000000000010001100 +
#5720
0!
0%
#5740
1!
1%
b00000000000000000000000010001101 +
#5760
0!
0%
#5780
1!
1%
b00000000000000000000000010001110 +
#5800
0!
0%
#5820
1!
1%
b00000000000000000000000010001111 +
#5840
0!
0%
#5860
1!
1%
b00000000000000000000000010010000 +
#5880
0!
0%
#5900
1!
1%
b00000000000000000000000010010001 +
#5920
0!
0%
#5940
1!
1%
b00000000000000000000000010010010 +
#5960
0!
0%
#5980
1!
1%
b00000000000000000000000010010011 +
#6000
0!
0%
#6020
1!
1%
b00000000000000000000000010010100 +
#6040
0!
0%
#6060
1!
1%
b00000000000000000000000010010101 +
#6080
0!
0%
#6100
1!
1%
b00000000000000000000000010010110 +
#6120
0!
0%
#6140
1!
1%
b00000000000000000000000010010111 +
#6160
0!
0%
#6180
1!
1%
b00000000000000000000000010011000 +
#6200
0!
0%
#6220
1!
1%
b00000000000000000000000010011001 +
#6240
0!
0%
#6260
1!
1%
b00000000000000000000000010011010 +
#6280
0!
0%
#6300
1!
1%
b00000000000000000000000010011011 +
#6320
0!
0%
#6340
1!
1%
b00000000000000000000000010011100 +
#6360
0!
0%
#6380
1!
1%
b00000000000000000000000010011101 +
#6400
0!
0%
#6420
1!
1%
b00000000000000000000000010011110 +
#6440
0!
0%
#6460
1!
1%
b00000000000000000000000010011111 +
#6480
0!
0%
#6500
1!
1%
b00000000000000000000000010100000 +
#6520
0!
0%
#6540
1!
1%
b00000000000000000000000010100001 +
#6560
0!
0%
#6580
1!
1%
b00000000000000000000000010100010 +
#6600
0!
0%
#6620
1!
1%
b00000000000000000000000010100011 +
#6640
0!
0%
#6660
1!
1%
b00000000000000000000000010100100 +
#6680
0!
0%
#6700
1!
1%
b00000000000000000000000010100101 +
#6720
0!
0%
#6740
1!
1%
b00000000000000000000000010100110 +
#6760
0!
0%
#6780
1!
1%
b00000000000000000000000010100111 +
#6800
0!
0%
#6820
1!
1%
b00000000000000000000000010101000 +
#6840
0!
0%
#6860
1!
1%
b00000000000000000000000010101001 +
#6880
0!
0%
#6900
1!
1%
b00000000000000000000000010101010 +
#6920
0!
0%
#6940
1!
1%
b00000000000000000000000010101011 +
#6960
0!
0%
#6980
1!
1%
b00000000000000000000000010101100 +
#7000
0!
0%
#7020
1!
1%
b00000000000000000000000010101101 +
#7040
0!
0%
#7060
1!
1%
b00000000000000000000000010101110 +
#7080
0!
0%
#7100
1!
1%
b00000000000000000000000010101111 +
#7120
0!
0%
#7140
1!
1%
b00000000000000000000000010110000 +
#7160
0!
0%
#7180
1!
1%
b00000000000000000000000010110001 +
#7200
0!
0%
#7220
1!
1%
b00000000000000000000000010110010 +
#7240
0!
0%
#7260
1!
1%
b00000000000000000000000010110011 +
#7280
0!
0%
#7300
1!
1%
b00000000000000000000000010110100 +
#7320
0!
0%
#7340
1!
1%
b00000000000000000000000010110101 +
#7360
0!
0%
#7380
1!
1%
b00000000000000000000000010110110 +
#7400
0!
0%
#7420
1!
1%
b00000000000000000000000010110111 +
#7440
0!
0%
#7460
1!
1%
b00000000000000000000000010111000 +
#7480
0!
0%
#7500
1!
1%
b00000000000000000000000010111001 +
#7520
0!
0%
#7540
1!
1%
b00000000000000000000000010111010 +
#7560
0!
0%
#7580
1!
1%
b00000000000000000000000010111011 +
#7600
0!
0%
#7620
1!
1%
b00000000000000000000000010111100 +
#7640
0!
0%
#7660
1!
1%
b00000000000000000000000010111101 +
#7680
0!
0%
#7700
1!
1%
b00000000000000000000000010111110 +
#7720
0!
0%
#7740
1!
1%
b00000000000000000000000010111111 +
#7760
0!
0%
#7780
1!
1%
b00000000000000000000000011000000 +
#7800
0!
0%
#7820
1!
1%
b00000000000000000000000011000001 +
#7840
0!
0%
#7860
1!
1%
b00000000000000000000000011000010 +
#7880
0!
0%
#7900
1!
1%
b00000000000000000000000011000011 +
#7920
0!
0%
#7940
1!
1%
b00000000000000000000000011000100 +
#7960
0!
0%
#7980
1!
1%
b00000000000000000000000011000101 +
#8000
0!
0%
#8020
1!
1%
b00000000000000000000000011000110 +
#8040
0!
0%
#8060
1!
1%
b00000000000000000000000011000111 +
#8080
0!
0%
#8100
1!
1%
b00000000000000000000000011001000 +
#8120
0!
0%
#8140
1!
1%
b00000000000000000000000011001001 +
#8160
0!
0%
#8180
1!
1%
b00000000000000000000000011001010 +
#8200
0!
0%
#8220
1!
1%
b00000000000000000000000011001011 +
#8240
0!
0%
#8260
1!
1%
b00000000000000000000000011001100 +
#8280
0!
0%
#8300
1!
1%
b00000000000000000000000011001101 +
#8320
0!
0%
#8340
1!
1%
b00000000000000000000000011001110 +
#8360
0!
0%
#8380
1!
1%
b00000000000000000000000011001111 +
#8400
0!
0%
#8420
1!
1%
b00000000000000000000000011010000 +
#8440
0!
0%
#8460
1!
1%
b00000000000000000000000011010001 +
#8480
0!
0%
#8500
1!
1%
b00000000000000000000000011010010 +
#8520
0!
0%
#8540
1!
1%
b00000000000000000000000011010011 +
#8560
0!
0%
#8580
1!
1%
b00000000000000000000000011010100 +
#8600
0!
0%
#8620
1!
1%
b00000000000000000000000011010101 +
#8640
0!
0%
#8660
1!
1%
b00000000000000000000000011010110 +
#8680
0!
0%
#8700
1!
1%
b00000000000000000000000011010111 +
#8720
0!
0%
#8740
1!
1%
b00000000000000000000000011011000 +
#8760
0!
0%
#8780
1!
1%
b00000000000000000000000011011001 +
#8800
0!
0%
#8820
1!
1%
b00000000000000000000000011011010 +
#8840
0!
0%
#8860
1!
1%
b00000000000000000000000011011011 +
#8880
0!
0%
#8900
1!
1%
b00000000000000000000000011011100 +
#8920
0!
0%
#8940
1!
1%
b00000000000000000000000011011101 +
#8960
0!
0%
#8980
1!
1%
b00000000000000000000000011011110 +
#9000
0!
0%
#9020
1!
1%
b00000000000000000000000011011111 +
#9040
0!
0%
#9060
1!
1%
b00000000000000000000000011100000 +
#9080
0!
0%
#9100
1!
1%
b00000000000000000000000011100001 +
#9120
0!
0%
#9140
1!
1%
b00000000000000000000000011100010 +
#9160
0!
0%
#9180
1!
1%
b00000000000000000000000011100011 +
#9200
0!
0%
#9220
1!
1%
b00000000000000000000000011100100 +
#9240
0!
0%
#9260
1!
1%
b00000000000000000000000011100101 +
#9280
0!
0%
#9300
1!
1%
b00000000000000000000000011100110 +
#9320
0!
0%
#9340
1!
1%
b00000000000000000000000011100111 +
#9360
0!
0%
#9380
1!
1%
b00000000000000000000000011101000 +
#9400
0!
0%
#9420
1!
1%
b00000000000000000000000011101001 +
#9440
0!
0%
#9460
1!
1%
b00000000000000000000000011101010 +
#9480
0!
0%
#9500
1!
1%
b00000000000000000000000011101011 +
#9520
0!
0%
#9540
1!
1%
b00000000000000000000000011101100 +
#9560
0!
0%
#9580
1!
1%
b00000000000000000000000011101101 +
#9600
0!
0%
#9620
1!
1%
b00000000000000000000000011101110 +
#9640
0!
0%
#9660
1!
1%
b00000000000000000000000011101111 +
#9680
0!
0%
#9700
1!
1%
b00000000000000000000000011110000 +
#9720
0!
0%
#9740
1!
1%
b00000000000000000000000011110001 +
#9760
0!
0%
#9780
1!
1%
b00000000000000000000000011110010 +
#9800
0!
0%
#9820
1!
1%
b00000000000000000000000011110011 +
#9840
0!
0%
#9860
1!
1%
b00000000000000000000000011110100 +
#9880
0!
0%
#9900
1!
1%
b00000000000000000000000011110101 +
#9920
0!
0%
#9940
1!
1%
b00000000000000000000000011110110 +
#9960
0!
0%
#9980
1!
1%
b00000000000000000000000011110111 +
#10000
0!
0%
#10020
1!
1%
b00000000000000000000000011111000 +
#10040
0!
0%
#10060
1!
1%
b00000000000000000000000011111001 +
#10080
0!
0%
#10100
1!
1%
b00000000000000000000000011111010 +
#10120
0!
0%
#10140
1!
1%
b00000000000000000000000011111011 +
#10160
0!
0%
#10180
1!
1%
b00000000000000000000000011111100 +
#10200
0!
0%
#10220
1!
1%
b00000000000000000000000011111101 +
#10240
0!
0%
#10260
1!
1%
b00000000000000000000000011111110 +
#10280
0!
0%
#10300
1!
1%
b00000000000000000000000011111111 +
#10320
0!
0%
#10340
1!
1%
b00000000000000000000000100000000 +
#10360
0!
0%
#10380
1!
1%
b00000000000000000000000100000001 +
#10400
0!
0%
#10420
1!
1%
b00000000000000000000000100000010 +
#10440
0!
0%
#10460
1!
1%
b00000000000000000000000100000011 +
#10480
0!
0%
#10500
1!
1%
b00000000000000000000000100000100 +
#10520
0!
0%
#10540
1!
1%
b00000000000000000000000100000101 +
#10560
0!
0%
#10580
1!
1%
b00000000000000000000000100000110 +
#10600
0!
0%
#10620
1!
1%
b00000000000000000000000100000111 +
#10640
0!
0%
#10660
1!
1%
b00000000000000000000000100001000 +
#10680
0!
0%
#10700
1!
1%
b00000000000000000000000100001001 +
#10720
0!
0%
#10740
1!
1%
b00000000000000000000000100001010 +
#10760
0!
0%
#10780
1!
1%
b00000000000000000000000100001011 +
#10800
0!
0%
#10820
1!
1%
b00000000000000000000000100001100 +
#10840
0!
0%
#10860
1!
1%
b00000000000000000000000100001101 +
#10880
0!
0%
#10900
1!
1%
b00000000000000000000000100001110 +
#10920
0!
0%
#10940
1!
1%
b00000000000000000000000100001111 +
#10960
0!
0%
#10980
1!
1%
b00000000000000000000000100010000 +
#11000
0!
0%
#11020
1!
1%
b00000000000000000000000100010001 +
#11040
0!
0%
#11060
1!
1%
b00000000000000000000000100010010 +
#11080
0!
0%
#11100
1!
1%
b00000000000000000000000100010011 +
#11120
0!
0%
#11140
1!
1%
b00000000000000000000000100010100 +
#11160
0!
0%
#11180
1!
1%
b00000000000000000000000100010101 +
#11200
0!
0%
#11220
1!
1%
b00000000000000000000000100010110 +
#11240
0!
0%
#11260
1!
1%
b00000000000000000000000100010111 +
#11280
0!
0%
#11300
1!
1%
b00000000000000000000000100011000 +
#11320
0!
0%
#11340
1!
1%
b00000000000000000000000100011001 +
#11360
0!
0%
#11380
1!
1%
b00000000000000000000000100011010 +
#11400
0!
0%
#11420
1!
1%
b00000000000000000000000100011011 +
#11440
0!
0%
#11460
1!
1%
b00000000000000000000000100011100 +
#11480
0!
0%
#11500
1!
1%
b00000000000000000000000100011101 +
#11520
0!
0%
#11540
1!
1%
b00000000000000000000000100011110 +
#11560
0!
0%
#11580
1!
1%
b00000000000000000000000100011111 +
#11600
0!
0%
#11620
1!
1%
b00000000000000000000000100100000 +
#11640
0!
0%
#11660
1!
1%
b00000000000000000000000100100001 +
#11680
0!
0%
#11700
1!
1%
b00000000000000000000000100100010 +
#11720
0!
0%
#11740
1!
1%
b00000000000000000000000100100011 +
#11760
0!
0%
#11780
1!
1%
b00000000000000000000000100100100 +
#11800
0!
0%
#11820
1!
1%
b00000000000000000000000100100101 +
#11840
0!
0%
#11860
1!
1%
b00000000000000000000000100100110 +
#11880
0!
0%
#11900
1!
1%
b00000000000000000000000100100111 +
#11920
0!
0%
#11940
1!
1%
b00000000000000000000000100101000 +
#11960
0!
0%
#11980
1!
1%
b00000000000000000000000100101001 +
#12000
0!
0%
#12020
1!
1%
b00000000000000000000000100101010 +
#12040
0!
0%
#12060
1!
1%
b00000000000000000000000100101011 +
#12080
0!
0%
#12100
1!
1%
b00000000000000000000000100101100 +
#12120
0!
0%
#12140
1!
1%
b00000000000000000000000100101101 +
#12160
0!
0%
#12180
1!
1%
b00000000000000000000000100101110 +
#12200
0!
0%
#12220
1!
1%
b00000000000000000000000100101111 +
#12240
0!
0%
#12260
1!
1%
b00000000000000000000000100110000 +
#12280
0!
0%
#12300
1!
1%
b00000000000000000000000100110001 +
#12320
0!
0%
#12340
1!
1%
b00000000000000000000000100110010 +
#12360
0!
0%
#12380
1!
1%
b00000000000000000000000100110011 +
#12400
0!
0%
#12420
1!
1%
b00000000000000000000000100110100 +
#12440
0!
0%
#12460
1!
1%
b00000000000000000000000100110101 +
#12480
0!
0%
#12500
1!
1%
b00000000000000000000000100110110 +
#12520
0!
0%
#12540
1!
1%
b00000000000000000000000100110111 +
#12560
0!
0%
#12580
1!
1%
b00000000000000000000000100111000 +
#12600
0!
0%
#12620
1!
1%
b00000000000000000000000100111001 +
#12640
0!
0%
#12660
1!
1%
b00000000000000000000000100111010 +
#12680
0!
0%
#12700
1!
1%
b00000000000000000000000100111011 +
#12720
0!
0%
#12740
1!
1%
b00000000000000000000000100111100 +
#12760
0!
0%
#12780
1!
1%
b00000000000000000000000100111101 +
#12800
0!
0%
#12820
1!
1%
b00000000000000000000000100111110 +
#12840
0!
0%
#12860
1!
1%
b00000000000000000000000100111111 +
#12880
0!
0%
#12900
1!
1%
b00000000000000000000000101000000 +
#12920
0!
0%
#12940
1!
1%
b00000000000000000000000101000001 +
#12960
0!
0%
#12980
1!
1%
b00000000000000000000000101000010 +
#13000
0!
0%
#13020
1!
1%
b00000000000000000000000101000011 +
#13040
0!
0%
#13060
1!
1%
b00000000000000000000000101000100 +
#13080
0!
0%
#13100
1!
1%
b00000000000000000000000101000101 +
#13120
0!
0%
#13140
1!
1%
b00000000000000000000000101000110 +
#13160
0!
0%
#13180
1!
1%
b00000000000000000000000101000111 +
#13200
0!
0%
#13220
1!
1%
b00000000000000000000000101001000 +
#13240
0!
0%
#13260
1!
1%
b00000000000000000000000101001001 +
#13280
0!
0%
#13300
1!
1%
b00000000000000000000000101001010 +
#13320
0!
0%
#13340
1!
1%
b00000000000000000000000101001011 +
#13360
0!
0%
#13380
1!
1%
b00000000000000000000000101001100 +
#13400
0!
0%
#13420
1!
1%
b00000000000000000000000101001101 +
#13440
0!
0%
#13460
1!
1%
b00000000000000000000000101001110 +
#13480
0!
0%
#13500
1!
1%
b00000000000000000000000101001111 +
#13520
0!
0%
#13540
1!
1%
b00000000000000000000000101010000 +
#13560
0!
0%
#13580
1!
1%
b00000000000000000000000101010001 +
#13600
0!
0%
#13620
1!
1%
b00000000000000000000000101010010 +
#13640
0!
0%
#13660
1!
1%
b00000000000000000000000101010011 +
#13680
0!
0%
#13700
1!
1%
b00000000000000000000000101010100 +
#13720
0!
0%
#13740
1!
1%
b00000000000000000000000101010101 +
#13760
0!
0%
#13780
1!
1%
b00000000000000000000000101010110 +
#13800
0!
0%
#13820
1!
1%
b00000000000000000000000101010111 +
#13840
0!
0%
#13860
1!
1%
b00000000000000000000000101011000 +
#13880
0!
0%
#13900
1!
1%
b00000000000000000000000101011001 +
#13920
0!
0%
#13940
1!
1%
b00000000000000000000000101011010 +
#13960
0!
0%
#13980
1!
1%
b00000000000000000000000101011011 +
#14000
0!
0%
#14020
1!
1%
b00000000000000000000000101011100 +
#14040
0!
0%
#14060
1!
1%
b00000000000000000000000101011101 +
#14080
0!
0%
#14100
1!
1%
b00000000000000000000000101011110 +
#14120
0!
0%
#14140
1!
1%
b00000000000000000000000101011111 +
#14160
0!
0%
#14180
1!
1%
b00000000000000000000000101100000 +
#14200
0!
0%
#14220
1!
1%
b00000000000000000000000101100001 +
#14240
0!
0%
#14260
1!
1%
b00000000000000000000000101100010 +
#14280
0!
0%
#14300
1!
1%
b00000000000000000000000101100011 +
#14320
0!
0%
#14340
1!
1%
b00000000000000000000000101100100 +
#14360
0!
0%
#14380
1!
1%
b00000000000000000000000101100101 +
#14400
0!
0%
#14420
1!
1%
b00000000000000000000000101100110 +
#14440
0!
0%
#14460
1!
1%
b00000000000000000000000101100111 +
#14480
0!
0%
#14500
1!
1%
b00000000000000000000000101101000 +
#14520
0!
0%
#14540
1!
1%
b00000000000000000000000101101001 +
#14560
0!
0%
#14580
1!
1%
b00000000000000000000000101101010 +
#14600
0!
0%
#14620
1!
1%
b00000000000000000000000101101011 +
#14640
0!
0%
#14660
1!
1%
b00000000000000000000000101101100 +
#14680
0!
0%
#14700
1!
1%
b00000000000000000000000101101101 +
#14720
0!
0%
#14740
1!
1%
b00000000000000000000000101101110 +
#14760
0!
0%
#14780
1!
1%
b00000000000000000000000101101111 +
#14800
0!
0%
#14820
1!
1%
b00000000000000000000000101110000 +
#14840
0!
0%
#14860
1!
1%
b00000000000000000000000101110001 +
#14880
0!
0%
#14900
1!
1%
b00000000000000000000000101110010 +
#14920
0!
0%
#14940
1!
1%
b00000000000000000000000101110011 +
#14960
0!
0%
#14980
1!
1%
b00000000000000000000000101110100 +
#15000
0!
0%
#15020
1!
1%
b00000000000000000000000101110101 +
#15040
0!
0%
#15060
1!
1%
b00000000000000000000000101110110 +
#15080
0!
0%
#15100
1!
1%
b00000000000000000000000101110111 +
#15120
0!
0%
#15140
1!
1%
b00000000000000000000000101111000 +
#15160
0!
0%
#15180
1!
1%
b00000000000000000000000101111001 +
#15200
0!
0%
#15220
1!
1%
b00000000000000000000000101111010 +
#15240
0!
0%
#15260
1!
1%
b00000000000000000000000101111011 +
#15280
0!
0%
#15300
1!
1%
b00000000000000000000000101111100 +
#15320
0!
0%
#15340
1!
1%
b00000000000000000000000101111101 +
#15360
0!
0%
#15380
1!
1%
b00000000000000000000000101111110 +
#15400
0!
0%
#15420
1!
1%
b00000000000000000000000101111111 +
#15440
0!
0%
#15460
1!
1%
b00000000000000000000000110000000 +
#15480
0!
0%
#15500
1!
1%
b00000000000000000000000110000001 +
#15520
0!
0%
#15540
1!
1%
b00000000000000000000000110000010 +
#15560
0!
0%
#15580
1!
1%
b00000000000000000000000110000011 +
#15600
0!
0%
#15620
1!
1%
b00000000000000000000000110000100 +
#15640
0!
0%
#15660
1!
1%
b00000000000000000000000110000101 +
#15680
0!
0%
#15700
1!
1%
b00000000000000000000000110000110 +
#15720
0!
0%
#15740
1!
1%
b00000000000000000000000110000111 +
#15760
0!
0%
#15780
1!
1%
b00000000000000000000000110001000 +
#15800
0!
0%
#15820
1!
1%
b00000000000000000000000110001001 +
#15840
0!
0%
#15860
1!
1%
b00000000000000000000000110001010 +
#15880
0!
0%
#15900
1!
1%
b00000000000000000000000110001011 +
#15920
0!
0%
#15940
1!
1%
b00000000000000000000000110001100 +
#15960
0!
0%
#15980
1!
1%
b00000000000000000000000110001101 +
#16000
0!
0%
#16020
1!
1%
b00000000000000000000000110001110 +
#16040
0!
0%
#16060
1!
1%
b00000000000000000000000110001111 +
#16080
0!
0%
#16100
1!
1%
b00000000000000000000000110010000 +
#16120
0!
0%
#16140
1!
1%
b00000000000000000000000110010001 +
#16160
0!
0%
#16180
1!
1%
b00000000000000000000000110010010 +
#16200
0!
0%
#16220
1!
1%
b00000000000000000000000110010011 +
#16240
0!
0%
#16260
1!
1%
b00000000000000000000000110010100 +
#16280
0!
0%
#16300
1!
1%
b00000000000000000000000110010101 +
#16320
0!
0%
#16340
1!
1%
b00000000000000000000000110010110 +
#16360
0!
0%
#16380
1!
1%
b00000000000000000000000110010111 +
#16400
0!
0%
#16420
1!
1%
b00000000000000000000000110011000 +
#16440
0!
0%
#16460
1!
1%
b00000000000000000000000110011001 +
#16480
0!
0%
#16500
1!
1%
b00000000000000000000000110011010 +
#16520
0!
0%
#16540
1!
1%
b00000000000000000000000110011011 +
